{
	"id": "8fe5adef-1872-47a2-a68a-e2f8364f7035",
	"name": "Visonic PSP ",
	"values": [
		{
			"key": "alias",
			"value": "",
			"enabled": true
		},
		{
			"key": "panel_serial",
			"value": "160920170000",
			"enabled": true
		},
		{
			"key": "installer_code",
			"value": "5555",
			"enabled": true
		}
	],
	"_postman_variable_scope": "environment",
	"_postman_exported_at": "2021-04-17T18:53:36.794Z",
	"_postman_exported_using": "Postman/8.2.3"
}